[
  {
    "url": "/stories/merged/chapter-1",
    "title": "Chapter 1: The Queen and Her Rules",
    "desc": "The Queen and the rule that distroyed and changed everything",
    "date": "2018-12-31T00:00:00Z",
    "tags": []
  }
]
