[
  {
    "url": "/stories/transformed/chapter-1",
    "title": "Chapter 1: Evil Jane",
    "desc": "An uninvited guest and the imaginary friend.",
    "date": "2019-03-07T00:00:00Z",
    "tags": []
  }
]
